^C:\USERS\ATORRENTS\DESKTOP\WORKSPACE\PRACTICASSOO\PRACTICASSOO\PRACTICASSOO\X64\DEBUG\SOURCE.OBJ
C:\USERS\ATORRENTS\DESKTOP\WORKSPACE\PRACTICASSOO\PRACTICASSOO\X64\DEBUG\PRACTICASSOO.ILK
C:\USERS\ATORRENTS\DESKTOP\WORKSPACE\PRACTICASSOO\PRACTICASSOO\X64\DEBUG\PRACTICASSOO.EXE
C:\USERS\ATORRENTS\DESKTOP\WORKSPACE\PRACTICASSOO\PRACTICASSOO\X64\DEBUG\PRACTICASSOO.PDB
